module necheff.net/hermes

go 1.21

require (
	github.com/onsi/ginkgo/v2 v2.17.1
	github.com/onsi/gomega v1.33.0
)

require (
	github.com/go-logr/logr v1.4.1 // indirect
	github.com/go-task/slim-sprig v0.0.0-20230315185526-52ccab3ef572 // indirect
	github.com/google/go-cmp v0.6.0 // indirect
	github.com/google/pprof v0.0.0-20240416155748-26353dc0451f // indirect
	golang.org/x/net v0.24.0 // indirect
	golang.org/x/sys v0.19.0 // indirect
	golang.org/x/text v0.14.0 // indirect
	golang.org/x/tools v0.20.0 // indirect
	gopkg.in/yaml.v3 v3.0.1 // indirect
)
